{
    "characters":[
        {
            "initialCoordinate":{
                "x":-2,
                "y":-2,
                "json_encode_type":"HexCoordinate"
            },
            "experience":150,
            "json_encode_type":"Character",
            "characterClass":"HeroesWarriorClass"
        },
        {
            "initialCoordinate":{
                "x":-2,
                "y":2,
                "json_encode_type":"HexCoordinate"
            },
            "experience":150,
            "json_encode_type":"Character",
            "characterClass":"HeroesWarriorClass"
        }
    ],
    "json_encode_type":"Roster"
}
