{
    "characters":[
        {
            "initialCoordinate":{
                "x":0,
                "y":0,
                "json_encode_type":"HexCoordinate"
            },
            "experience":150,
            "json_encode_type":"Character",
            "characterClass":"HeroesWarriorClass"
        }
    ],
    "json_encode_type":"Roster"
}
